…
```r
train_new <- create_ratios_folds(train_variants, 5)
names(train_new) <- c("ID", "Gene", "Variation", "Class", paste0("R",1:9))
```
Let's look at this data

```r
train_new
```

```
## # A tibble: 3,321 × 13
##       ID   Gene            Variation Class        R1         R2    R3
##    <dbl>  <chr>                <chr> <dbl>     <dbl>      <dbl> <dbl>
## 1      0 FAM58A Truncating Mutations     1 0.9569892 0.01075269     0
## 2      5    CBL                V391I     4 0.0000000 0.00000000     0
## 3      6    CBL                V430M     5 0.0000000 0.00000000     0
## 4     13    CBL                C381A     4 0.0000000 0.00000000     0
## 5     16    CBL Truncating Mutations     1 0.9569892 0.01075269     0
## 6     17    CBL                Q367P     4 0.0000000 0.00000000     0
## 7     21    CBL                C396R     4 0.0000000 0.00000000     0
## 8     29   TERT                H412Y     4 0.0000000 0.00000000     0
## 9     36 DICER1               G1809K     4 0.0000000 0.00000000     0
## 10    41 DICER1 Truncating Mutations     1 0.9569892 0.01075269     0
## # ... with 3,311 more rows, and 6 more variables: R4 <dbl>, R5 <dbl>,
## #   R6 <dbl>, R7 <dbl>, R8 <dbl>, R9 <dbl>
```
…
tf_idf <- frequency %>%
  bind_tf_idf(word, ID, n)
```

```
## Warning in tbl[[n_col]]/as.numeric(doc_totals[documents]): longer object
## length is not a multiple of shorter object length
```

```r
tf_idf %>% filter(tf_idf > 1e-3)
```

```
## Source: local data frame [1,172,863 x 6]
## Groups: ID [3,318]
## 
##       ID     word     n          tf        idf      tf_idf
##    <int>    <chr> <int>       <dbl>      <dbl>       <dbl>
## 1      0    cdk10   128 0.035734227 7.41487404 0.264964790
## 2      0   cyclin   125 0.034896706 1.56988140 0.054783689
## 3      0     ets2    70 0.019542155 5.06349878 0.098951679
## 4      0    level    49 0.013679509 0.07533635 0.001030564
## 5      0   fam58a    34 0.009491904 7.41487404 0.070381272
## 6      0     star    33 0.009212730 2.68307120 0.024718411
## 7      0 interact    28 0.007816862 0.22570630 0.001764315
## 8      0       mm    26 0.007258515 0.68325946 0.004959449
## 9      0  syndrom    25 0.006979341 0.81160795 0.005664489
## 10     0   silenc    23 0.006420994 1.83892494 0.011807726
## # ... with 1,172,853 more rows
```
…
